37.8342 	 0.0344964 	 0.880865 	 0.103873 	 2.35992 	 29.7154 	 29.7131 	 0.0392672 
37.8611 	 0.0469168 	 1.33163 	 0 	 2.43687 	 29.7241 	 69.2997 	 0.00849505 
37.8479 	 0.0289426 	 0.775996 	 0.050258 	 2.39333 	 29.7112 	 29.7818 	 0.0228405 
37.8302 	 0.0348303 	 0.785357 	 0.22861 	 2.28107 	 29.6785 	 29.6972 	 0.0445486 
37.8724 	 0.0520277 	 1.48902 	 0 	 2.39189 	 29.7164 	 119.05 	 0.000255717 
37.8308 	 0.056718 	 0.644145 	 0.248251 	 5.83582 	 44.9173 	 154.006 	 0.00874939 
37.8286 	 0.0586941 	 0.639607 	 0.253671 	 6.02601 	 44.9166 	 150.766 	 0.00975011 
37.7972 	 0.0482926 	 0.498613 	 0.139892 	 6.65431 	 48.3815 	 192.021 	 0.041394 
37.8114 	 0.0713379 	 0.630416 	 0.117099 	 8.04355 	 54.6645 	 525.916 	 0.0228205 
37.8098 	 0.0556655 	 0.590143 	 0.191212 	 6.38017 	 46.9224 	 172.334 	 0.0276503 
