37.8234 	 0.087159 	 0.859318 	 0.256215 	 5.81777 	 43.1698 	 228.301 	 0.00270207 
37.8159 	 0.0733255 	 0.715646 	 0.192152 	 5.92502 	 44.4606 	 278.9 	 0.00893 
37.7949 	 0.0790123 	 0.889399 	 0.328705 	 4.94404 	 40.2763 	 179.198 	 0.0339466 
