0.0	0.000
0.001	0.000
0.03086	2.890
0.03888	3.130
0.04830	3.510
0.05667	4.660
0.06572	6.250
0.07616	8.900
0.08276	11.270
0.08866	14.100
0.09523	18.590
0.10110	22.940
0.10590	28.970
0.10966	35.000
0.11303	43.760
0.11605	52.830
0.11766	61.900
0.12069	70.520
0.12233	77.930
0.12536	86.090
0.12773	91.370
0.13081	95.440
0.13357	97.990
0.13776	98.110
0.14093	95.960
0.14376	93.060
0.14626	89.560
0.14983	83.620
0.15306	77.230
0.15771	69.620
0.16198	63.520
0.16906	56.500
0.16906	56.500
0.17579	50.080
0.18250	44.120
0.19064	36.630
0.20120	30.340
0.21281	23.730
0.22966	17.390
0.24614	12.110
0.26539	8.770
0.28218	6.670
0.29791	5.030
0.31539	3.530
0.33357	2.180
0.35313	1.420
0.37059	1.130
0.38491	0.410
0.40272	0.120
0.42193	0.120
0.43729	0.000
0.5	0.000